Presidential campaigns
…
Now lets examine within parties

## # A tibble: 22 x 5
## # Groups:   party [2]
##         party                  cand_nm   sum_can  mean_can     n
##         <chr>                   <fctr>     <dbl>     <dbl> <int>
##  1 republican        Pataki, George E.   6000.00  666.6667     9
##  2 republican     Gilmore, James S III  11800.00 2360.0000     5
##  3   democrat         Lessig, Lawrence  20027.94  646.0626    31
##  4   democrat    Webb, James Henry Jr.  31090.16  545.4414    57
##  5 republican            Jindal, Bobby  42460.00  772.0000    55
##  6   democrat  O'Malley, Martin Joseph 139187.00  669.1683   208
##  7 republican       Graham, Lindsey O. 146487.00  996.5102   147
##  8 republican Christie, Christopher J. 269355.00 1432.7394   188
##  9 republican     Santorum, Richard J. 281288.20 1152.8205   244
## 10 republican           Huckabee, Mike 284820.76  404.0011   705
## # ... with 12 more rows
…
